%YAML 1.1
%TAG !u! tag:unity3d.com,2011:
--- !u!162 &1
EditorUserSettings:
  m_ObjectHideFlags: 0
  serializedVersion: 4
  m_ConfigSettings:
    RecentlyUsedScenePath-0:
      value: 2242470311464676080a052706225350001e14262d2f237f0e280f27ade3352af6d822ecf42e002f3a07e1394a2b0f36e613
      flags: 0
    RecentlyUsedScenePath-1:
      value: 2242470311464676080a0527062253501e180d392967223520265326ece92021
      flags: 0
    RecentlyUsedScenePath-2:
      value: 224247031146466b0202152502225b155923173a130c292723693036e6e9312ee3eb76caee2e26730e0be13809370d33cd2c1b0ef3443d021f0af0071df35e061fcc0cdc
      flags: 0
    RecentlyUsedScenePath-3:
      value: 224247031146466b0202152502225b155923173a130c292723693036e6e9312ee3eb76caee2e26730e0be13809370d33cd2c1b0ef34426021f0be81e5fea1e1a05dc
      flags: 0
    RecentlyUsedScenePath-4:
      value: 2242470311464676080a05270622532f01121426632d3e3120391136ddf3373dece278fce9332b25
      flags: 0
    RecentlyUsedScenePath-5:
      value: 2242470311464678051b1e21186c6c1313191d65082d2b3f633c133af6f9
      flags: 0
    RecentlyUsedScenePath-6:
      value: 224247031146465702194c321f2f46501b121c23293e273c6d2b083aeee43d36e5f479fae43f31397717e1351027
      flags: 0
    RecentlyUsedScenePath-7:
      value: 224247031146467a090a032c036c7c111b120a2b1c2932380e3b1832f6ef2677c6c21bc6a8190f1f0626ea310b701431fb1e10
      flags: 0
    RecentlyUsedScenePath-8:
      value: 224247031146465508191f21152d5a5e0319113e35
      flags: 0
    RecentlyUsedScenePath-9:
      value: 22424703114646770c1a09301e301f11181358292d26223c283a521fe3f4312aecf476ede23730722c0ce6281d
      flags: 0
    vcSharedLogLevel:
      value: 0d5e400f0650
      flags: 0
  m_VCAutomaticAdd: 1
  m_VCDebugCom: 0
  m_VCDebugCmd: 0
  m_VCDebugOut: 0
  m_SemanticMergeMode: 2
  m_VCShowFailedCheckout: 1
  m_VCOverwriteFailedCheckoutAssets: 1
  m_VCProjectOverlayIcons: 1
  m_VCHierarchyOverlayIcons: 1
  m_VCOtherOverlayIcons: 1
  m_VCAllowAsyncUpdate: 1
